[{
  "id": 1,
  "fecha": "8/3/2019",
  "importe": 65,
  "latitude": 47.8863988,
  "longitud": 106.9057439,
  "ciudad": "Ulaanbaatar"
}, {
  "id": 2,
  "fecha": "10/3/2019",
  "importe": 50,
  "latitude": 55.6383075,
  "longitud": 22.938485,
  "ciudad": "Kelmė"
}, {
  "id": 3,
  "fecha": "10/21/2019",
  "importe": 100,
  "latitude": 50.7885238,
  "longitud": 37.8995347,
  "ciudad": "Novyy Oskol"
}, {
  "id": 4,
  "fecha": "6/18/2019",
  "importe": 72,
  "latitude": 41.3486394,
  "longitud": 19.8345726,
  "ciudad": "Peza e Madhe"
}, {
  "id": 5,
  "fecha": "5/5/2020",
  "importe": 66,
  "latitude": 37.691429,
  "longitud": 118.122323,
  "ciudad": "Niulanshan"
}, {
  "id": 6,
  "fecha": "1/11/2020",
  "importe": 51,
  "latitude": 22.9353419,
  "longitud": 113.6587617,
  "ciudad": "Huyang"
}, {
  "id": 7,
  "fecha": "4/9/2020",
  "importe": 11,
  "latitude": 52.08234,
  "longitud": 5.1175293,
  "ciudad": "Utrecht (stad)"
}, {
  "id": 8,
  "fecha": "3/4/2020",
  "importe": 51,
  "latitude": 59.3156702,
  "longitud": 18.0942083,
  "ciudad": "Stockholm"
}, {
  "id": 9,
  "fecha": "1/11/2020",
  "importe": 74,
  "latitude": 29.756501,
  "longitud": 121.507191,
  "ciudad": "Henghe"
}, {
  "id": 10,
  "fecha": "9/6/2020",
  "importe": 2,
  "latitude": 52.7680084,
  "longitud": 41.2841466,
  "ciudad": "CDMx"
}]